Annotated Code and Graphics for the Ames Problem Statement
…
## [1] 0

sum(is.empty(AmesData))

## [1] 30190

Data Explanations

For the remaining operations, particular the graphics involving the ggplot2 package, it will be helpful to convert the data into the tibble data frame format for ease of use.

AmesTibble <- as_tibble(AmesData)
AmesTibble

## # A tibble: 2,925 x 82
##    Order       PID MSSubClass MSZoning LotFrontage LotArea Street Alley
##    <int>     <int>      <int> <fct>          <int>   <int> <fct>  <fct>
##  1     1 526301100         20 RL               141   31770 Pave   w/o  
##  2     2 526350040         20 RH                80   11622 Pave   w/o  
##  3     3 526351010         20 RL                81   14267 Pave   w/o  
##  4     4 526353030         20 RL                93   11160 Pave   w/o  
##  5     5 527105010         60 RL                74   13830 Pave   w/o  
##  6     6 527105030         60 RL                78    9978 Pave   w/o  
##  7     7 527127150        120 RL                41    4920 Pave   w/o  
##  8     8 527145080        120 RL                43    5005 Pave   w/o  
##  9     9 527146030        120 RL                39    5389 Pave   w/o  
## 10    10 527162130         60 RL                60    7500 Pave   w/o  
## # ... with 2,915 more rows, and 74 more variables: LotShape <fct>,
## #   LandContour <fct>, Utilities <fct>, LotConfig <fct>, LandSlope <fct>,
## #   Neighborhood <fct>, Condition1 <fct>, Condition2 <fct>,
## #   BldgType <fct>, HouseStyle <fct>, OverallQual <int>,
## #   OverallCond <int>, YearBuilt <int>, YearRemodAdd <int>,
## #   RoofStyle <fct>, RoofMatl <fct>, Exterior1st <fct>, Exterior2nd <fct>,
## #   MasVnrType <fct>, MasVnrArea <dbl>, ExterQual <fct>, ExterCond <fct>,
## #   Foundation <fct>, BsmtQual <fct>, BsmtCond <fct>, BsmtExposure <fct>,
## #   BsmtFinType1 <fct>, BsmtFinSF1 <dbl>, BsmtFinType2 <fct>,
…
