Ames Housing Model Analysis, Part 1
…
The high values associated with Basement features indicate collinearity exists there, so we need to make sure not to include more than one Basement feature in the model. In addition, features related to the square footage of living space are showing Infinite VIF scores, which means the data may have some problems associated with high dimensionality. We will discuss this more in a bit.

Next, convert the data frame to the tibble format for subequent steps in the analysis, beginning with the preparation of dummy variables.

AmesTrTib <- as_tibble(AmesTr)
AmesTrTib

## # A tibble: 2,918 x 74
##    MSSubClass MSZoning LotFrontage LotArea Street LotShape LandContour
##    <fct>      <fct>          <dbl>   <int> <fct>  <fct>    <fct>      
##  1 60         RL               65.    8450 Pave   Reg      Lvl        
##  2 20         RL               80.    9600 Pave   Reg      Lvl        
##  3 60         RL               68.   11250 Pave   IR1      Lvl        
##  4 70         RL               60.    9550 Pave   IR1      Lvl        
##  5 60         RL               84.   14260 Pave   IR1      Lvl        
##  6 50         RL               85.   14115 Pave   IR1      Lvl        
##  7 20         RL               75.   10084 Pave   Reg      Lvl        
##  8 60         RL               68.   10382 Pave   IR1      Lvl        
##  9 50         RM               51.    6120 Pave   Reg      Lvl        
## 10 190        RL               50.    7420 Pave   Reg      Lvl        
## # ... with 2,908 more rows, and 67 more variables: Utilities <fct>,
## #   LotConfig <fct>, LandSlope <fct>, Neighborhood <fct>,
## #   Condition1 <fct>, Condition2 <fct>, BldgType <fct>, HouseStyle <fct>,
## #   OverallQual <fct>, OverallCond <fct>, YearBuilt <int>,
## #   YearRemodAdd <int>, RoofStyle <fct>, RoofMatl <fct>,
## #   Exterior1st <fct>, Exterior2nd <fct>, MasVnrType <fct>,
## #   MasVnrArea <int>, ExterQual <fct>, ExterCond <fct>, Foundation <fct>,
## #   BsmtQual <fct>, BsmtCond <fct>, BsmtExposure <fct>,
## #   BsmtFinType1 <fct>, BsmtFinSF1 <int>, BsmtFinType2 <fct>,
…
