Ames Housing Model Analysis, Part 2
…
Again, issues exist with features related to square footage and basement, so we will treat them in this section just as we did previously.

2 Preparing Dummy Variables and Scaling Data

Next we perform more routine work, creating dummy variables and scaling the data. We want to end up with an abbreviated data set composed of the same useful features we worked with in the first part of the study.

AmesTrTib <- as_tibble(AmesTr)
AmesTrTib

## # A tibble: 1,456 x 75
##    MSSubClass MSZoning LotFrontage LotArea Street LotShape LandContour
##    <fct>      <fct>          <int>   <int> <fct>  <fct>    <fct>      
##  1 60         RL                65    8450 Pave   Reg      Lvl        
##  2 20         RL                80    9600 Pave   Reg      Lvl        
##  3 60         RL                68   11250 Pave   IR1      Lvl        
##  4 70         RL                60    9550 Pave   IR1      Lvl        
##  5 60         RL                84   14260 Pave   IR1      Lvl        
##  6 50         RL                85   14115 Pave   IR1      Lvl        
##  7 20         RL                75   10084 Pave   Reg      Lvl        
##  8 60         RL                69   10382 Pave   IR1      Lvl        
##  9 50         RM                51    6120 Pave   Reg      Lvl        
## 10 190        RL                50    7420 Pave   Reg      Lvl        
## # ... with 1,446 more rows, and 68 more variables: Utilities <fct>,
## #   LotConfig <fct>, LandSlope <fct>, Neighborhood <fct>,
## #   Condition1 <fct>, Condition2 <fct>, BldgType <fct>, HouseStyle <fct>,
## #   OverallQual <fct>, OverallCond <fct>, YearBuilt <int>,
## #   YearRemodAdd <int>, RoofStyle <fct>, RoofMatl <fct>,
## #   Exterior1st <fct>, Exterior2nd <fct>, MasVnrType <fct>,
## #   MasVnrArea <dbl>, ExterQual <fct>, ExterCond <fct>, Foundation <fct>,
## #   BsmtQual <fct>, BsmtCond <fct>, BsmtExposure <fct>,
## #   BsmtFinType1 <fct>, BsmtFinSF1 <dbl>, BsmtFinType2 <fct>,
…
